{
    "1.15": {
        "baritone": {
            "available": false
        }
    },
    "1.14.4": {
        "baritone": {
            "available": true,
            "version": "1.4.0+updated",
            "installer": "Fabric",
          "url": "https://gitlab.com/emc-mods-indrit/baritone_api/raw/master/releases/fabritone-1.14.4.jar"
        }
    },
    "1.14.3": {
        "baritone": {
            "available": false
        }
    },
    "1.14.2": {
        "baritone": {
            "available": false
        }
    },
    "1.14.1": {
        "baritone": {
            "available": false
        }
    },
    "1.14": {
        "baritone": {
            "available": false
        }
    },
    "1.13.2": {
        "baritone": {
            "available": true,
            "version": "1.3.4+updated",
            "installer": "tweakClass",
            "url": "https://gitlab.com/emc-mods-indrit/baritone_api/raw/master/releases/baritone-1.13.2.jar"
        }
    },
    "1.13.1": {
        "baritone": {
            "available": false
        }
    },
    "1.13": {
        "baritone": {
            "available": false
        }
    },
    "1.12.2": {
        "baritone": {
            "available": false,
            "version": "1.2.8",
            "installer": "tweakClass",
            "url": "https://gitlab.com/emc-mods-indrit/baritone_api/raw/master/releases/baritone-1.12.2.jar"
        }
    }
}